{"photos":{"page":1,"pages":1894,"perpage":100,"total":189358,"photo":[{"id":"51880456842","owner":"75449151@N07","secret":"bd33d5c1c8","server":"65535","farm":66,"title":"cat rider","ispublic":1,"isfriend":0,"isfamily":0},{"id":"51881422786","owner":"187530214@N02","secret":"f8650042d8","server":"65535","farm":66,"title":"white cat _ roses","ispublic":1,"isfriend":0,"isfamily":0},{"id":"51881741049","owner":"195015827@N07","secret":"5ff7ceddd3","server":"65535","farm":66,"title":"Fat Cats","ispublic":1,"isfriend":0,"isfamily":0},{"id":"51882071385","owner":"141786248@N02","secret":"eff18cd064","server":"65535","farm":66,"title":"White Cat sketch portrait. Ballpoint pen drawing by jmsw on thick card.","ispublic":1,"isfriend":0,"isfamily":0},{"id":"51881735944","owner":"190734299@N06","secret":"0af012d5b1","server":"65535","farm":66,"title":"Graffity \u270c\u200d\u2640\ufe0f\ud83d\udc37\ud83d\udc9a\u2603\ufe0f\u2744\ud83d\udc27\ud83d\ude39\ud83d\udc8b\ud83c\udf10","ispublic":1,"isfriend":0,"isfamily":0},{"id":"51881493383","owner":"46262145@N08","secret":"1dd6065489","server":"65535","farm":66,"title":"On Patrol II","ispublic":1,"isfriend":0,"isfamily":0},{"id":"51881732764","owner":"190734299@N06","secret":"6e42fd0377","server":"65535","farm":66,"title":"Graffity \u270c\u200d\u2640\ufe0f\ud83d\udc37\ud83d\udc27\u2603\ufe0f\u2744\ud83d\udc9a\ud83d\ude39\ud83d\udc8b\ud83c\udf10","ispublic":1,"isfriend":0,"isfamily":0},{"id":"51882061910","owner":"190734299@N06","secret":"9092f6301a","server":"65535","farm":66,"title":"Graffity \u270c\ud83d\ude39\u200d\u2640\ufe0f\ud83d\udc27\u2744\u2603\ufe0f\ud83d\udc9a\ud83d\udc8b\ud83c\udf6d\ud83c\udf10","ispublic":1,"isfriend":0,"isfamily":0},{"id":"51881404766","owner":"92505104@N07","secret":"710fd6b9a6","server":"65535","farm":66,"title":"\u732b","ispublic":1,"isfriend":0,"isfamily":0},{"id":"51880433072","owner":"50331573@N00","secret":"7777b113f2","server":"65535","farm":66,"title":"Be My Valentine","ispublic":1,"isfriend":0,"isfamily":0},{"id":"51880432752","owner":"16105638@N00","secret":"f534ba2c6b","server":"65535","farm":66,"title":"The tomb of Geoffrey Chaucer, Westminster Abbey, City of Westminster","ispublic":1,"isfriend":0,"isfamily":0},{"id":"51881719229","owner":"16105638@N00","secret":"2c1438f005","server":"65535","farm":66,"title":"Westminster Abbey, City of Westminster","ispublic":1,"isfriend":0,"isfamily":0},{"id":"51881719149","owner":"16105638@N00","secret":"e168ac09b4","server":"65535","farm":66,"title":"Westminster Abbey, City of Westminster","ispublic":1,"isfriend":0,"isfamily":0},{"id":"51881477818","owner":"16105638@N00","secret":"59683f398a","server":"65535","farm":66,"title":"Westminster Abbey, City of Westminster","ispublic":1,"isfriend":0,"isfamily":0},{"id":"51881477683","owner":"16105638@N00","secret":"0598806e6d","server":"65535","farm":66,"title":"Westminster Abbey, City of Westminster","ispublic":1,"isfriend":0,"isfamily":0},{"id":"51882051540","owner":"16105638@N00","secret":"0fd37d6e93","server":"65535","farm":66,"title":"Westminster Abbey, City of Westminster","ispublic":1,"isfriend":0,"isfamily":0},{"id":"51881392626","owner":"83323987@N00","secret":"bca5e3cb48","server":"65535","farm":66,"title":"HAPPY ST. VALENTINE'S DAY\u2665\ufe0f\u2764\ufe0f\ud83d\udc3e\ud83d\udc3e\u2764\ufe0f\u2665\ufe0f","ispublic":1,"isfriend":0,"isfamily":0},{"id":"51881396871","owner":"194898003@N04","secret":"63456a6840","server":"65535","farm":66,"title":"#Beast Retouch","ispublic":1,"isfriend":0,"isfamily":0},{"id":"51880422252","owner":"188411047@N03","secret":"a7f4aa075f","server":"65535","farm":66,"title":"Unidentified running object  \u2462","ispublic":1,"isfriend":0,"isfamily":0},{"id":"51880422027","owner":"188411047@N03","secret":"c3206434b1","server":"65535","farm":66,"title":"Unidentified running object \u2461","ispublic":1,"isfriend":0,"isfamily":0},{"id":"51881467098","owner":"188411047@N03","secret":"d08b91446d","server":"65535","farm":66,"title":"Unidentified running object  \u24f5","ispublic":1,"isfriend":0,"isfamily":0},{"id":"51881456518","owner":"58210871@N06","secret":"08afcd7110","server":"65535","farm":66,"title":"I'm Back","ispublic":1,"isfriend":0,"isfamily":0},{"id":"51880823206","owner":"8070463@N03","secret":"be6f752a6c","server":"65535","farm":66,"title":"Shahrukh with open mouth","ispublic":1,"isfriend":0,"isfamily":0},{"id":"51881966480","owner":"194452192@N08","secret":"51efeeb999","server":"65535","farm":66,"title":"Illustration #7","ispublic":1,"isfriend":0,"isfamily":0},{"id":"51881990370","owner":"193116401@N03","secret":"25a96435b3","server":"65535","farm":66,"title":"fuerza","ispublic":1,"isfriend":0,"isfamily":0},{"id":"51881414263","owner":"193116401@N03","secret":"1cc339e151","server":"65535","farm":66,"title":"hola","ispublic":1,"isfriend":0,"isfamily":0},{"id":"51881653189","owner":"81560788@N05","secret":"799a969b5f","server":"65535","farm":66,"title":"Host LuxannaKiss Valentines Bash 2022","ispublic":1,"isfriend":0,"isfamily":0},{"id":"51881651864","owner":"193116401@N03","secret":"a827956032","server":"65535","farm":66,"title":"morella","ispublic":1,"isfriend":0,"isfamily":0},{"id":"51881978810","owner":"147448247@N06","secret":"1b7f499cab","server":"65535","farm":66,"title":"Cat's Eyes","ispublic":1,"isfriend":0,"isfamily":0},{"id":"51881324496","owner":"12679771@N05","secret":"0672012080","server":"65535","farm":66,"title":"Early Morning at Cindy's Cat House 02.14.22","ispublic":1,"isfriend":0,"isfamily":0},{"id":"51881369068","owner":"13612940@N00","secret":"8a2ee5bb07","server":"65535","farm":66,"title":"Valentine kiss","ispublic":1,"isfriend":0,"isfamily":0},{"id":"51881364983","owner":"81560788@N05","secret":"3fe03064df","server":"65535","farm":66,"title":"DJKing Valentines Bash Feb 12, 2022","ispublic":1,"isfriend":0,"isfamily":0},{"id":"51880312712","owner":"187012750@N03","secret":"d1504b50cd","server":"65535","farm":66,"title":"T\u00f4n c\u00e1ch nhi\u1ec7t m\u00e1i ng\u00f3i \u2013 M\u00e1i che ho\u00e0n h\u1ea3o \u1edf Long An","ispublic":1,"isfriend":0,"isfamily":0},{"id":"51881923390","owner":"68047735@N00","secret":"de037a223c","server":"65535","farm":66,"title":"Japan. Kyoto. Pussy Cat in plush.","ispublic":1,"isfriend":0,"isfamily":0},{"id":"51881337218","owner":"96043862@N05","secret":"fe67d91af4","server":"65535","farm":66,"title":"Wilde Spiele","ispublic":1,"isfriend":0,"isfamily":0},{"id":"51881895505","owner":"162830196@N03","secret":"cfac0474fe","server":"65535","farm":66,"title":"Valentin-22\ud83d\ude3b","ispublic":1,"isfriend":0,"isfamily":0},{"id":"51881240891","owner":"162830196@N03","secret":"2e2e73edb5","server":"65535","farm":66,"title":"Valentin-22\ud83d\ude3b","ispublic":1,"isfriend":0,"isfamily":0},{"id":"51881323268","owner":"162830196@N03","secret":"3dd79faba0","server":"65535","farm":66,"title":"Valentin-22\ud83d\ude3b","ispublic":1,"isfriend":0,"isfamily":0},{"id":"51881323273","owner":"162830196@N03","secret":"6faa572582","server":"65535","farm":66,"title":"Valentin-22\ud83d\ude3b","ispublic":1,"isfriend":0,"isfamily":0},{"id":"51880277362","owner":"162830196@N03","secret":"ee257fbe78","server":"65535","farm":66,"title":"Valentin-22\ud83d\ude3b","ispublic":1,"isfriend":0,"isfamily":0},{"id":"51881320103","owner":"100596031@N05","secret":"77837b1331","server":"65535","farm":66,"title":"Panther Walking Gingerly","ispublic":1,"isfriend":0,"isfamily":0},{"id":"51881867710","owner":"186084148@N06","secret":"850b465bd3","server":"65535","farm":66,"title":"So ein Schweinestall :-)","ispublic":1,"isfriend":0,"isfamily":0},{"id":"51881529994","owner":"100596031@N05","secret":"3f859bcd0e","server":"65535","farm":66,"title":"Panther on a Wetland Trail","ispublic":1,"isfriend":0,"isfamily":0},{"id":"51881859840","owner":"100596031@N05","secret":"c7cefa31f3","server":"65535","farm":66,"title":"Panther on the Roof","ispublic":1,"isfriend":0,"isfamily":0},{"id":"51880239227","owner":"20127130@N02","secret":"71c2344db6","server":"65535","farm":66,"title":"Love is all we need","ispublic":1,"isfriend":0,"isfamily":0},{"id":"51881260213","owner":"168684727@N08","secret":"2f8d5bbea1","server":"65535","farm":66,"title":"Woodland 01","ispublic":1,"isfriend":0,"isfamily":0},{"id":"51881177536","owner":"168684727@N08","secret":"6cab2c324f","server":"65535","farm":66,"title":"Woodland 02","ispublic":1,"isfriend":0,"isfamily":0},{"id":"51881259868","owner":"168684727@N08","secret":"69446b3962","server":"65535","farm":66,"title":"Woodland 04","ispublic":1,"isfriend":0,"isfamily":0},{"id":"51881491809","owner":"187486912@N05","secret":"52938a0c23","server":"65535","farm":66,"title":"C\u00f4ng ty TNHH Phavila, D\u1ecbch v\u1ee5 cho thu\u00ea v\u0103n ph\u00f2ng \u1ea3o","ispublic":1,"isfriend":0,"isfamily":0},{"id":"51881238753","owner":"195007349@N02","secret":"b15fa07085","server":"65535","farm":66,"title":"Wild Tom cat","ispublic":1,"isfriend":0,"isfamily":0},{"id":"51881784765","owner":"188928995@N06","secret":"4c80d36fc3","server":"65535","farm":66,"title":"Blender - Tutorial (CG Geek) - It's Dark When The Lights Go Out","ispublic":1,"isfriend":0,"isfamily":0},{"id":"51881450959","owner":"143383912@N03","secret":"69aa5eb2d6","server":"65535","farm":66,"title":"\u2730\u2730\u2730 Life' a Beach...\u2661 Especially With Kitties! \u2661 \u2730\u2730\u2730","ispublic":1,"isfriend":0,"isfamily":0},{"id":"51881748690","owner":"78402541@N05","secret":"2572b9b33e","server":"65535","farm":66,"title":"Love Cats","ispublic":1,"isfriend":0,"isfamily":0},{"id":"51881750220","owner":"134638137@N02","secret":"a8618fd166","server":"65535","farm":66,"title":"Cat","ispublic":1,"isfriend":0,"isfamily":0},{"id":"51881087121","owner":"193302640@N07","secret":"d06156a0af","server":"65535","farm":66,"title":"Mobile Radiography Systems Market Growth by Top Companies, Trends by Types and Application, Forecast to 2027","ispublic":1,"isfriend":0,"isfamily":0},{"id":"51880112872","owner":"192402588@N02","secret":"6ccdc0f871","server":"65535","farm":66,"title":"amazing tattoo CAT MOON I loved it so much","ispublic":1,"isfriend":0,"isfamily":0},{"id":"51881075981","owner":"192402588@N02","secret":"d7a5a390b7","server":"65535","farm":66,"title":"amazing tattoo CAT MOON I loved it so much","ispublic":1,"isfriend":0,"isfamily":0},{"id":"51880112657","owner":"192402588@N02","secret":"35df473f52","server":"65535","farm":66,"title":"amazing tattoo CAT MOON I loved it so much","ispublic":1,"isfriend":0,"isfamily":0},{"id":"51880112562","owner":"192402588@N02","secret":"f790e97a80","server":"65535","farm":66,"title":"amazing tattoo CAT MOON I loved it so much","ispublic":1,"isfriend":0,"isfamily":0},{"id":"51881075631","owner":"192402588@N02","secret":"50b63c5e9f","server":"65535","farm":66,"title":"amazing tattoo CAT MOON I loved it so much","ispublic":1,"isfriend":0,"isfamily":0},{"id":"51881730260","owner":"192402588@N02","secret":"53a8e00019","server":"65535","farm":66,"title":"amazing tattoo CAT MOON I loved it so much","ispublic":1,"isfriend":0,"isfamily":0},{"id":"51881728390","owner":"194455559@N06","secret":"459a4a36c6","server":"65535","farm":66,"title":"My cute cat \u2665","ispublic":1,"isfriend":0,"isfamily":0},{"id":"51881141513","owner":"42035325@N00","secret":"7e08c66877","server":"65535","farm":66,"title":"2022-02-14 16.25.33","ispublic":1,"isfriend":0,"isfamily":0},{"id":"51881714535","owner":"42035325@N00","secret":"eda643cda8","server":"65535","farm":66,"title":"2022-02-14 16.25.36","ispublic":1,"isfriend":0,"isfamily":0},{"id":"51881141248","owner":"42035325@N00","secret":"6511b4240c","server":"65535","farm":66,"title":"2022-02-14 16.30.46","ispublic":1,"isfriend":0,"isfamily":0},{"id":"51881059181","owner":"42035325@N00","secret":"536e2d3ffb","server":"65535","farm":66,"title":"2022-02-14 16.22.53","ispublic":1,"isfriend":0,"isfamily":0},{"id":"51880091357","owner":"69046412@N03","secret":"44167bd661","server":"65535","farm":66,"title":"Eye of the tiger","ispublic":1,"isfriend":0,"isfamily":0},{"id":"51880075897","owner":"87318193@N08","secret":"57c260e3f5","server":"65535","farm":66,"title":"cats","ispublic":1,"isfriend":0,"isfamily":0},{"id":"51881691945","owner":"187012750@N03","secret":"0a1857e0df","server":"65535","farm":66,"title":"T\u00f4n s\u00f3ng ng\u00f3i \u2013 L\u1ef1a ch\u1ecdn t\u1ed1i \u01b0u khi x\u00e2y nh\u00e0 cho thu\u00ea \u1edf B\u00ecnh D\u01b0\u01a1ng","ispublic":1,"isfriend":0,"isfamily":0},{"id":"51880071842","owner":"195009770@N03","secret":"5c9e7059c6","server":"0","farm":0,"title":"Masonic Supplies","ispublic":1,"isfriend":0,"isfamily":0},{"id":"51881111158","owner":"143299753@N06","secret":"e0411ef5d0","server":"65535","farm":66,"title":"DSCF0384","ispublic":1,"isfriend":0,"isfamily":0},{"id":"51880057592","owner":"38205659@N03","secret":"21ac866b38","server":"65535","farm":66,"title":"Conrad Felixmuller - Girl, dog and cat","ispublic":1,"isfriend":0,"isfamily":0},{"id":"51881660445","owner":"30447586@N00","secret":"b1c3e0e4c1","server":"65535","farm":66,"title":"Today's Cat@2022\u221202\u221214","ispublic":1,"isfriend":0,"isfamily":0},{"id":"51881296959","owner":"183880746@N02","secret":"5bd235423e","server":"65535","farm":66,"title":"Cat bokeh","ispublic":1,"isfriend":0,"isfamily":0},{"id":"51880969826","owner":"28912994@N04","secret":"7871984247","server":"65535","farm":66,"title":"KEN Feb.6 2022","ispublic":1,"isfriend":0,"isfamily":0},{"id":"51880007127","owner":"28912994@N04","secret":"3ca88892af","server":"65535","farm":66,"title":"KEN Feb.6 2022 100%","ispublic":1,"isfriend":0,"isfamily":0},{"id":"51881604965","owner":"153237179@N02","secret":"f2489234ca","server":"65535","farm":66,"title":"FOUND grey tabby w\/white cat #Prestwick #McKenzie Towne Contact 403-401-4150 Pls RT, share for owner awareness. If claiming MUST provide proof of ownership and photo ID Lovely kitty found in Prestwick, McKenzie Towne. She\u2019s very beaten up and matted. Wall","ispublic":1,"isfriend":0,"isfamily":0},{"id":"51879985552","owner":"153237179@N02","secret":"f1deb03cdf","server":"65535","farm":66,"title":"LOST black cat #NewBrighton Pls RT, watch, share, help to locate PITCH Lost male black cat from new Brighton in Calgary Plz message me if you see him around Lost male black cat from new Brighton in Calgary Plz message me if you see him around 2022-02-14T0","ispublic":1,"isfriend":0,"isfamily":0},{"id":"51879985407","owner":"153237179@N02","secret":"31d094a85b","server":"65535","farm":66,"title":"LOST black cat in #marlborough. Msg. Shannan. Pls rt watch share help to find ECHO! ***Missing*** My cat Echo got out this morning and has returned. She's a fluffy and all black. No collar or tattoo but she is chipped. If anyone has seen her in the Marlbo","ispublic":1,"isfriend":0,"isfamily":0},{"id":"51879985197","owner":"153237179@N02","secret":"ce293c94bf","server":"65535","farm":66,"title":"LOST dsh brown black and grey tabby type cat in #WestHillhurst. Phone\/text Kira 587-999-4003. Pl rt share watch help find Sir Rufus. Photos from Kira Dunlop's postvpdescription by Photos from Kira Dunlop's post LOST dsh brown black and grey tabby type cat","ispublic":1,"isfriend":0,"isfamily":0},{"id":"51881269559","owner":"153237179@N02","secret":"e4272dd2dd","server":"65535","farm":66,"title":"LOST orange tabby cat #SandstoneValley Contact 403-998-2060 if sighted\/found Pls RT, watch, share, help to locate RUMBLES Missing our cat. He\u2019s an indoor cat and has never wanted to go outside but we haven\u2019t seen him since last night. Have searched the wh","ispublic":1,"isfriend":0,"isfamily":0},{"id":"51881028963","owner":"153237179@N02","secret":"c12a83f3d4","server":"65535","farm":66,"title":"LOST dsh black cat in #AuburnBay. CALL 403-999-3893 or 403-497-5541 if seen\/ found. Pls rt, share, watch, help find STORM! *******Additional PHOTO in Comments *********** Our cat went missing we believe through the night. We live in Auburn Bay. Shes never","ispublic":1,"isfriend":0,"isfamily":0},{"id":"51880940691","owner":"91619997@N04","secret":"d296e1599e","server":"65535","farm":66,"title":"Love","ispublic":1,"isfriend":0,"isfamily":0},{"id":"51881251854","owner":"31984487@N00","secret":"a7444e04af","server":"65535","farm":66,"title":"Home Sweet Home","ispublic":1,"isfriend":0,"isfamily":0},{"id":"51881016153","owner":"194979126@N04","secret":"6e30e6cdfe","server":"65535","farm":66,"title":"3animal-pillowMonkey03-Cat","ispublic":1,"isfriend":0,"isfamily":0},{"id":"51881006023","owner":"52665825@N05","secret":"17ac3924b2","server":"65535","farm":66,"title":"bos-misc-1190340b+w-120122","ispublic":1,"isfriend":0,"isfamily":0},{"id":"51881566755","owner":"194545230@N04","secret":"3060773756","server":"65535","farm":66,"title":"Street cat","ispublic":1,"isfriend":0,"isfamily":0},{"id":"51879945247","owner":"60001641@N02","secret":"3efc3a8003","server":"65535","farm":66,"title":"Smelll","ispublic":1,"isfriend":0,"isfamily":0},{"id":"51879940602","owner":"190622906@N05","secret":"0a3afd3512","server":"65535","farm":66,"title":"Smart Roadster 452 secondary air pump 0009521V001","ispublic":1,"isfriend":0,"isfamily":0},{"id":"51881545360","owner":"123544864@N06","secret":"54449dba8f","server":"65535","farm":66,"title":"Nyan-Ko     PO-109-1A   F=5cm  1 : 1.2","ispublic":1,"isfriend":0,"isfamily":0},{"id":"51880888391","owner":"149253756@N06","secret":"f8722ed135","server":"65535","farm":66,"title":"Snow days","ispublic":1,"isfriend":0,"isfamily":0},{"id":"51881209839","owner":"149253756@N06","secret":"80f55ee27e","server":"65535","farm":66,"title":"Walking on snow","ispublic":1,"isfriend":0,"isfamily":0},{"id":"51881209609","owner":"149253756@N06","secret":"da9347cc1b","server":"65535","farm":66,"title":"Sun and Snow","ispublic":1,"isfriend":0,"isfamily":0},{"id":"51880859266","owner":"28517315@N03","secret":"3054748324","server":"65535","farm":66,"title":"Sumatran Tiger","ispublic":1,"isfriend":0,"isfamily":0},{"id":"51879909427","owner":"87318193@N08","secret":"cd072e1507","server":"65535","farm":66,"title":"cat","ispublic":1,"isfriend":0,"isfamily":0},{"id":"51879906182","owner":"185092702@N04","secret":"4d1ffb75ca","server":"65535","farm":66,"title":"Antonio","ispublic":1,"isfriend":0,"isfamily":0},{"id":"51880866036","owner":"195086275@N08","secret":"a3486c87af","server":"65535","farm":66,"title":"CEO AME Group Nguy\u1ec5n V\u0103n S\u00e1u","ispublic":1,"isfriend":0,"isfamily":0},{"id":"51881186689","owner":"195086275@N08","secret":"4d8f1c3369","server":"65535","farm":66,"title":"CEO AME Group Nguy\u1ec5n V\u0103n S\u00e1u","ispublic":1,"isfriend":0,"isfamily":0},{"id":"51881186669","owner":"195086275@N08","secret":"e2418b0d8b","server":"65535","farm":66,"title":"CEO AME Group Nguy\u1ec5n V\u0103n S\u00e1u","ispublic":1,"isfriend":0,"isfamily":0},{"id":"51880947773","owner":"195086275@N08","secret":"26a8f637af","server":"65535","farm":66,"title":"CEO AME Group Nguy\u1ec5n V\u0103n S\u00e1u","ispublic":1,"isfriend":0,"isfamily":0}]},"stat":"ok"}


